262676 479898 449
575934 727025 509
681518 729253 504
417507 707386 509
963481 994278 458
250287 540193 470
35763 197097 383
771714 783572 437
599442 649473 509
560242 745566 509
136039 845095 525
878102 977685 507
335444 767076 509
857506 948000 507
954206 975868 458
821669 843621 525
25960 629162 509
529653 821227 509
642847 841982 525
42355 361189 443
401102 501050 449
241454 371025 441
649948 884875 525
873858 985010 507
123180 884878 525
205831 517839 470
626819 672775 442
12813 777391 509
116873 385779 443
980849 996032 427
984816 985384 427
901349 964554 507
276542 422189 449
810892 906082 525
103418 230010 386
870656 929880 476
198759 846359 525
138355 741087 509
567743 793995 509
938419 948441 507
535100 792647 509
38016 700187 509
176348 639406 509
106482 338127 443
732642 816193 468
745788 962037 525
49792 838454 525
970302 985054 458
561218 673279 509
781688 973531 525
149395 285653 443
632425 906261 525
599817 777099 509
916970 923651 445
410688 516579 470
263556 872541 525
425888 701294 509
214541 993220 525
655627 888367 525
288254 924231 525
37160 589056 470
583268 972522 525
861340 941433 507
588593 757572 509
588957 887055 525
499483 518771 470
139852 874806 525
174648 924441 525
660907 683864 442
603652 677715 509
9749 842299 525
785868 830295 468
919938 981292 507
822851 906781 525
720648 849524 525
582021 834510 509
501342 745719 509
405202 816419 509
615113 824266 509
860444 878095 432
771144 833172 468
501463 676999 509
362739 402745 436
18348 566246 470
606230 805522 509
279096 515883 470
24356 552953 470
399397 538220 470
322549 808949 509
517375 650492 509
81038 718812 509
462115 727471 509
314587 348943 441
558045 589011 434
598795 810086 509
358259 976985 525
360198 491584 449
490026 766482 509
676231 818970 504
861565 950140 507
850139 928823 476
75158 182134 383
53462 485205 449
484895 565254 470
412914 945968 525
947397 995756 458
506603 841349 525
508900 924677 525
751753 878539 525
712004 802669 468
344018 626624 509
983868 997119 427
337709 749480 509
896199 983632 507
511210 907996 525
340715 921089 525
301226 956959 525
383703 977047 525
598526 801891 509
68016 775617 509
294224 372518 441
258736 633938 509
426219 665245 509
709943 968983 525
244892 784850 509
147440 626302 470
329242 395535 441
686500 696900 442
937392 993488 507
417525 547658 470
532952 731882 509
258723 651721 509
222193 970172 525
177881 246580 443
719834 905459 525
71364 763519 509
697774 986595 525
24323 704833 509
235313 753813 509
488011 695650 509
603635 652952 509
77711 172944 383
113927 679205 509
785996 987164 525
618447 670970 509
631469 930551 525
392503 639403 509
979960 985951 427
401361 828900 509
371006 436876 449
798077 935020 525
24117 833030 509
793183 797372 468
515883 742731 509
321573 435518 449
104038 509207 449
883573 896495 445
464697 848852 525
923127 986872 507
282387 927921 525
59834 597941 470
322405 979125 525
439437 951514 525
840055 854805 419
985867 989563 396
678366 953845 525
967293 977891 458
877562 890130 445
269286 798052 509
139044 503331 449
962105 999667 458
586066 972305 525
93412 290428 443
301263 425053 449
181595 334045 443
524025 956527 525
487873 776742 509
94072 702412 509
386144 439394 449
880891 935335 476
985546 988415 396
255726 635744 509
708067 829135 468
351797 686321 509
791056 862075 525
919356 947918 507
654863 663822 429
946497 980773 458
396930 558752 470
678749 907802 525
503205 592726 470
753699 848827 525
385822 513110 470
398511 856375 525
251496 890064 525
625472 841136 525
780447 870597 525
317269 712767 509
61455 946953 525
765035 806236 468
390589 828057 509
5208 790811 509
355910 548064 470
970422 985925 458
411182 520559 470
458390 775775 509
135907 272116 443
233000 867230 525
272025 449325 449
402332 783166 509
258078 425665 449
277610 367099 441
699772 821296 504
485707 801860 509
642627 718512 504
693985 866487 525
489811 634065 509
237760 979728 525
866636 977746 507
690958 704840 504
652164 844088 525
667758 686354 385
632870 787185 504
82465 325846 443
428219 965640 525
38858 955396 525
198064 915180 525
151453 295312 443
939689 961368 414
463516 573228 470
858206 912445 476
395326 733431 509
706077 990350 525
566159 600512 434
354200 943762 525
393933 954718 525
403999 936794 525
447950 774266 509
799185 911163 525
23896 586817 470
729597 961012 525
658846 832157 504
676932 884764 525
783366 866028 525
173095 446456 449
291650 296702 358
650129 757602 504
569184 798296 509
901274 983886 507
43170 698607 509
137160 542584 470
832923 998282 525
593755 783936 509
907275 985858 507
518666 617032 452
293537 323486 384
997605 997691 321
726800 880039 525
18896 676691 509
651851 740313 504
739644 914026 525
915421 949179 507
153820 712836 509
815520 831702 450
521808 747855 509
198181 713314 509
294039 407457 441
394823 935347 525
795315 947446 525
460201 891449 525
294129 865703 525
370797 521024 470
399461 512839 470
778226 796999 468
307073 531193 470
695489 822148 504
21666 478457 449
201472 562424 470
443880 568313 470
644296 755195 504
692310 715000 504
262231 677250 509
540198 855280 525
488723 635303 509
268718 295616 407
761488 982163 525
624996 721765 509
787652 864970 525
344106 774763 509
338510 860405 525
587760 712367 509
106347 688895 509
664508 741373 504
50077 814915 509
60487 189223 383
552075 580142 421
865143 994808 507
943011 986380 458
929985 932352 370
338054 698331 509
