1 10 20
100 200 125
201 210 89
900 1000 174
872 3902 238
463 2636 209
88 780 171
1186 4391 238
1052 3825 238
385 471 134
393 4478 238
2943 4252 238
850 4639 238
324 2689 209
1818 2993 217
4272 4462 215
481 4060 238
2077 2852 209
2909 3059 217
1053 4295 238
86 835 171
2803 4835 238
2162 3433 217
147 1609 182
325 3532 217
4309 4696 215
215 400 144
3887 4735 215
220 2885 209
3081 3260 199
820 3956 238
213 3358 217
1460 4641 238
41 2010 182
3408 4448 238
1380 4867 238
308 2405 183
2773 3350 217
516 3191 217
2027 3148 217
1813 4082 238
3507 3934 238
3951 4156 189
4414 4715 184
2450 4964 238
488 4097 238
2504 4138 238
189 1287 182
643 1560 182
2042 4043 238
1291 2235 183
1253 3670 217
2929 3737 238
427 4911 238
1887 2054 175
10 2057 182
175 2313 183
2328 2776 209
254 1012 179
4107 4909 215
2623 4498 238
768 3228 217
3198 4345 238
1958 3519 217
2232 2889 209
853 1170 182
2697 4943 238
8 287 128
854 3724 238
2267 4032 238
4147 4774 215
1809 2212 175
65 2396 183
767 1620 182
137 4606 238
3346 4090 238
684 3211 217
765 3056 217
543 4419 238
1123 2387 183
666 2702 209
1541 1777 180
948 3157 217
37 3336 217
796 4790 238
1806 3614 217
803 1343 182
1825 1953 175
4044 4858 215
725 3772 238
1995 3756 238
3172 4159 238
536 697 145
923 4966 238
281 2242 183
2684 3875 238
2955 3814 238
113 4818 238
3291 4766 238
491 3624 217
958 3954 238
2859 4870 238
2267 2701 209
1392 1434 172
1201 2371 183
4092 4977 215
2251 4479 238
1140 2378 183
1928 2430 183
3338 4654 238
2125 2347 183
1107 4352 238
870 3574 217
727 1952 182
3700 4042 238
3023 3106 186
960 3997 238
95 1579 182
933 4125 238
1614 2164 180
2202 3193 217
2531 3784 238
940 4693 238
4377 4536 215
516 2023 182
858 3225 217
1077 2803 209
3374 4076 238
3828 4458 215
659 4340 238
2064 4061 238
640 2567 209
686 4017 238
3519 4269 238
964 2388 183
76 1328 182
2057 2532 209
2488 4998 238
4483 4817 197
1255 2825 209
486 4223 238
126 2244 183
46 730 171
4087 4860 215
3417 4535 238
521 539 124
2484 2501 178
178 3279 217
2173 2411 183
1206 1921 180
3481 3743 238
98 192 125
3131 3210 199
415 2194 182
790 4734 238
1674 4318 238
3059 4944 238
2587 4737 238
2435 4110 238
3755 4315 202
1875 4984 238
1216 1349 177
4168 4558 215
4040 4733 215
615 2933 217
139 664 145
185 1125 179
2320 3546 217
1625 1644 136
75 4595 238
35 3407 217
3568 3759 238
4276 4824 215
3410 3750 238
766 2124 182
715 862 153
1661 4226 238
2474 2516 178
2704 3277 217
2510 3997 238
2971 4114 238
1737 3676 217
2006 4358 238
1211 1448 177
3314 4658 238
2647 2667 147
3203 4147 238
106 885 179
3299 3423 181
809 1123 179
1132 1305 182
2651 4121 238
4157 4581 215
1051 4037 238
1645 4213 238
918 1881 182
284 3754 238
1685 4070 238
3981 4315 202
1073 2962 217
134 3396 217
2030 3234 217
1997 2494 209
1242 4259 238
1401 4901 238
4443 4807 197
770 1075 179
1213 3390 217
4022 4115 158
3184 4941 238
1380 2994 217
4573 4875 197
3080 4475 238
950 4919 238
214 3414 217
1591 3293 217
3975 4577 215
1813 3263 217
1765 2711 209
3089 3610 199
3194 3260 168
736 1424 182
2762 3015 217
644 933 179
2631 2646 191
2129 2792 209
227 820 171
297 2296 183
1191 1430 177
837 2269 183
245 557 144
1418 1588 172
2665 3601 217
1249 3112 217
1687 2657 209
411 4734 238
4040 4455 215
3329 4742 238
236 1631 182
549 3333 217
3638 3756 238
131 1154 179
496 4004 238
2050 2730 209
2082 2243 183
2634 3383 217
604 3076 217
1572 2267 183
2270 2996 217
1424 2189 180
1271 3955 238
1267 2278 183
599 2523 209
482 3791 238
